EI,heliport,Algeciras Heliport,36.12888034,-5.441118479,98,EU,ES,ES-CA,Algeciras,LEAG,AEI,AEI
AEK,small_airport,Aseki Airport,-7.350804856,146.1938667,4106,OC,PG,PG-MPL,Aseki,AYAX,AEK,ASE
AF-0001,small_airport,Ajrestan Airport,33.48529816,67.14409637,8324,AS,AF,AF-ORU,Ajrestan,,,
AF-0002,small_airport,Dehdadi Airport,36.64609909,67.03230286,1378,AS,AF,AF-BAL,,,,
AF-0003,small_airport,Charikar Airport,35.14310074,69.31439972,5569,AS,AF,AF-KAP,,,,
AF-0004,small_airport,Dostmohammadkhan Kalay Airport,31.04500008,64.15419769,2333,AS,AF,AF-HEL,,,,
AF04,small_airport,Helmand Airport,30.33009911,61.89690018,,AS,AF,AF-NIM,,,,
AF06,small_airport,Khvej Ghar North Airport,37.07109833,69.49500275,1645,AS,AF,AF-TAK,,,,
AF07,small_airport,Khvej Ghar South Airport,37.06119919,69.48829651,1645,AS,AF,AF-TAK,,,,
AF08,small_airport,Kotubkhel Airport,34.19290161,69.13569641,6273,AS,AF,AF-LOW,,,,
AF09,small_airport,Nayak Airport,34.68709946,66.89320374,8650,AS,AF,AF-BAM,,,,
AF10,small_airport,Orūzgān Airport,32.90299988,66.63089752,6725,AS,AF,AF-ORU,Orūzgān,OARG,URZ,
AF11,small_airport,Salerno Landing Zone Airport,33.36380005,69.95610046,3780,AS,AF,AF-PIA,,,OLR,
AF12,small_airport,Sarhawdza Landing Zone Airport,33.15610123,68.81970215,7060,AS,AF,AF-PKA,,,,
AF13,small_airport,Sheber Too Landing Zone Airport,34.77890015,67.48670197,10490,AS,AF,AF-BAM,,,,
AF14,small_airport,Tapa Airport,32.74509811,62.59870148,2622,AS,AF,AF-FRA,,,,
AF15,heliport,Qara Tepa Heliport,37.4233017,69.43029785,1437,AS,AF,AF-TAK,,,,
AFK,seaplane_base,Kondavattavana Tank Seaplane Base,7.284,81.644,95,AS,LK,LK-5,Ampara,,AFK,
AFR,small_airport,Afore Airstrip,-9.142222222,148.3908333,2500,OC,PG,PG-NPP,,AYAF,AFR,AFE
AGAF,small_airport,Afutara Aerodrome,-9.191388889,160.9486111,23,OC,SB,SB-ML,Bila,AGAF,AFT,
AGAR,small_airport,Ulawa Airport,-9.860543583,161.9795465,40,OC,SB,SB-MK,Arona,AGAR,RNA,
AGAT,small_airport,Uru Harbour Airport,-8.873330116,161.0110016,,OC,SB,SB-ML,Atoifi,AGAT,ATD,
AGBA,small_airport,Barakoma Airport,-7.912779808,156.7059937,,OC,SB,SB-WE,Barakoma,AGBA,VEV,
AGEV,small_airport,Geva Airport,-7.575829983,156.5970001,,OC,SB,SB-WE,Liangia,AGEV,GEF,
AGG,small_airport,Angoram Airport,-4.055833333,144.0738889,75,OC,PG,PG-ESW,Angoram,,AGG,ANG
AGGA,small_airport,Auki Airport,-8.702569962,160.6820068,5,OC,SB,SB-ML,Auki,AGGA,AKS,
AGGB,small_airport,Bellona/Anua Airport,-11.30222222,159.7983333,60,OC,SB,SB-RB,Anua,AGGB,BNY,
AGGC,small_airport,Choiseul Bay Airport,-6.711944,156.396111,,OC,SB,SB-CH,,AGGC,CHY,
AGGE,small_airport,Ballalae Airport,-6.990745,155.886656,5,OC,SB,SB-WE,Ballalae,AGGE,BAS,
AGGF,small_airport,Fera/Maringe Airport,-8.107500076,159.5769958,,OC,SB,SB-IS,Fera Island,AGGF,FRE,
AGGH,medium_airport,Honiara International Airport,-9.42800045,160.0549927,28,OC,SB,SB-CT,Honiara,AGGH,HIR,
AGGI,small_airport,Babanakira Airport,-9.74750042,159.8390045,,OC,SB,SB-GU,Mbambanakira,AGGI,MBU,
AGGJ,small_airport,Avu Avu Airport,-9.868333333,160.4105556,25,OC,SB,SB-GU,,AGGJ,AVU,
AGGK,small_airport,Ngorangora Airport,-10.44970036,161.897995,54,OC,SB,SB-MK,Kirakira,AGGK,IRA,
AGGL,small_airport,Santa Cruz/Graciosa Bay/Luova Airport,-10.72029972,165.7949982,18,OC,SB,SB-TE,Santa Cruz/Graciosa Bay/Luova,AGGL,SCZ,
AGGM,medium_airport,Munda Airport,-8.327969551,157.2630005,10,OC,SB,SB-WE,,AGGM,MUA,
AGGN,small_airport,Nusatupe Airport,-8.097780228,156.8639984,13,OC,SB,SB-WE,Gizo,AGGN,GZO,
AGGO,small_airport,Mono Airport,-7.416940212,155.5650024,,OC,SB,SB-WE,Stirling Island,AGGO,MNY,
AGGP,small_airport,Parasi Airport,-9.641670227,161.4250031,,OC,SB,SB-ML,Parasi,AGGP,PRS,
AGGQ,closed,Ontong Java Atoll Airstrip,-5.515,159.5277778,10,OC,SB,SB-ML,Ontong Java Atoll,AGGQ,OTV,
AGGR,small_airport,Rennell/Tingoa Airport,-11.53390026,160.0630035,,OC,SB,SB-RB,Rennell Island,AGGR,RNL,
AGGS,small_airport,Sege Airport,-8.578889847,157.8760071,,OC,SB,SB-WE,Sege,AGGS,EGM,
AGGT,small_airport,Santa Ana Airport,-10.847994,162.454108,3,OC,SB,SB-MK,Santa Ana Island,AGGT,NNB,
AGGU,small_airport,Marau Airport,-9.86166954,160.8249969,,OC,SB,SB-GU,Marau,AGGU,RUS,
AGGV,small_airport,Suavanao Airport,-7.585559845,158.7310028,,OC,SB,SB-IS,Suavanao,AGGV,VAO,
AGGY,small_airport,Yandina Airport,-9.092816,159.21841,60,OC,SB,SB-CE,Yandina,AGGY,XYA,
