LECJ,small_airport,Castejón de los Monegros Airport,41.60779953,-0.218327001,1424,EU,ES,ES-AR,Huesca,LECJ,,
LECN,small_airport,Castellon De La Plana Airport,39.99919891,0.026110999,20,EU,ES,ES-V,Castellón de La Plana,LECN,CDT,
LECO,medium_airport,A Coruña Airport,43.30210114,-8.377260208,326,EU,ES,ES-GA,Culleredo,LECO,LCG,
LECT,small_airport,El Castaño Airport,39.01070023,-4.386360168,2116,EU,ES,ES-CM,Luciana,LECT,,
LECU,medium_airport,Cuatro Vientos Airport,40.37070084,-3.785140038,2269,EU,ES,ES-M,Madrid,LECU,ECV,MCV
LECX,small_airport,Campolara Airport,40.90309906,-4.520279884,3353,EU,ES,ES-CL,Segovia,LECX,,
LEDA,medium_airport,Lleida-Alguaire Airport,41.728185,0.535023,1170,EU,ES,ES-CT,Lleida,LEDA,ILD,
LEDG,heliport,Dirección General de Tráfico Heliport,40.44929886,-3.646130562,2336,EU,ES,ES-M,Madrid,LEDG,,
LEDO,heliport,Hospital Doce de Octubre Heliport,40.37473628,-3.699852526,1970,EU,ES,ES-M,Madrid,LEDO,,
LEDS,medium_airport,Castellón-Costa Azahar Airport,40.21388889,0.073333333,1145,EU,ES,ES-CS,Castellón de la Plana,LEDS,,
LEEL,heliport,El Musel Heliport,43.54973221,-5.695445538,1,EU,ES,ES-O,Gijón,LEEL,,
LEEM,small_airport,El Manantío Airport,38.77750778,-6.991124153,708,EU,ES,ES-EX,Badajoz,LEEM,,
LEEV,small_airport,E. Castellanos-Villacastín Airport,40.78390121,-4.462779999,3637,EU,ES,ES-CL,Villacastin,LEEV,,
LEEX,heliport,Expo 92 Heliport,37.39929962,-6.010674953,30,EU,ES,ES-AN,Sevilla,LEEX,,
LEFM,small_airport,Fuentemilanos Airport,40.88861084,-4.237500191,3307,EU,ES,ES-CL,Segovia,LEFM,,
LEFR,heliport,Fira M2 Heliport,41.35390091,2.129169941,34,EU,ES,ES-CT,Barcelona,LEFR,,
LEGA,medium_airport,Armilla Airport,37.1332016,-3.635689974,2297,EU,ES,ES-AN,Armilla,LEGA,,
LEGC,small_airport,Altarejos-Guadalcanal Airport,38.17169952,-5.739530087,1928,EU,ES,ES-AN,Sevilla,LEGC,,
LEGD,heliport,Garidells Heliport,41.21390152,1.241559982,434,EU,ES,ES-CT,Tarragona,LEGD,,
LEGE,medium_airport,Girona Airport,41.90100098,2.760550022,468,EU,ES,ES-CT,Girona,LEGE,GRO,
LEGR,medium_airport,Federico Garcia Lorca Airport,37.18870163,-3.777359962,1860,EU,ES,ES-AN,Granada,LEGR,GRX,
LEGS,heliport,Parque De Garraf-Sitges Heliport,41.27389908,1.914720058,1100,EU,ES,ES-CT,,LEGS,,
LEGT,medium_airport,Getafe Air Base,40.29410172,-3.723829985,2031,EU,ES,ES-M,Getafe,LEGT,,
LEGU,small_airport,Guadalupe Airport,39.34569931,-5.197350025,1408,EU,ES,ES-EX,Guadalupe,LEGU,,CCX
LEGV,heliport,Campo Gaviota Heliport,43.44169998,-2.753609896,630,EU,ES,ES-PV,,LEGV,,
LEGY,small_airport,Garray Airport,41.82310104,-2.478610039,3360,EU,ES,ES-CL,Soria,LEGY,,
LEHA,heliport,Hospital Alcorcón Heliport,40.34970238,-3.838190138,2269,EU,ES,ES-M,Alcorcón,LEHA,,
LEHB,heliport,Ciudad Sanitaria y Universitaria de Bellvitge Heliport,41.34529877,2.10729003,35,EU,ES,ES-CT,Barcelona,LEHB,,
LEHC,small_airport,Huesca/Pirineos Airport,42.0760994,-0.316666991,1768,EU,ES,ES-AR,Monflorite/Alcalá del Obispo,LEHC,HSK, 
